<svg width="15" height="15" viewBox="0 0 15 15" fill="none" xmlns="http://www.w3.org/2000/svg">
<circle r="7.20667" transform="matrix(-1 0 0 1 7.5 7.5)" stroke="#595959" stroke-width="0.586667"/>
<rect x="-0.2" y="0.2" width="0.4" height="5.6" rx="0.2" transform="matrix(-1 0 0 1 7.6 5.39062)" fill="#4E4E4E" stroke="#595959" stroke-width="0.4"/>
<path d="M8 3.78818C8 3.56727 7.82091 3.38818 7.6 3.38818C7.37909 3.38818 7.2 3.56727 7.2 3.78818V3.98818C7.2 4.2091 7.37909 4.38818 7.6 4.38818C7.82091 4.38818 8 4.2091 8 3.98818V3.78818Z" fill="#595959"/>
</svg>
