<svg width="167" height="11" viewBox="0 0 167 11" fill="none" xmlns="http://www.w3.org/2000/svg">
<path d="M4.17 11C2.85514 11 1.83142 10.5903 1.09885 9.77095C0.366284 8.95158 0 7.77374 0 6.23743V0.122905H1.40878V6.17598C1.40878 8.48045 2.33389 9.63268 4.18409 9.63268C5.08571 9.63268 5.77602 9.35102 6.255 8.78771C6.73399 8.21415 6.97348 7.34358 6.97348 6.17598V0.122905H8.34V6.23743C8.34 7.78399 7.97372 8.96695 7.24115 9.78631C6.50858 10.5954 5.48487 11 4.17 11Z" fill="black"/>
<path d="M16.7882 6.09916L14.985 8.09637V10.8771H13.5762V0.122905H14.985V6.12989L20.3384 0.122905H21.9444L17.7321 4.96229L22.2121 10.8771H20.5638L16.7882 6.09916Z" fill="black"/>
<path d="M32.6429 10.8771L30.5157 7.57402C30.2527 7.59451 30.0461 7.60475 29.8958 7.60475H27.4586V10.8771H26.0498V0.122905H29.8958C31.1731 0.122905 32.178 0.455773 32.9106 1.12151C33.6432 1.78724 34.0095 2.70391 34.0095 3.87151C34.0095 4.70112 33.8216 5.40782 33.4459 5.99162C33.0703 6.57542 32.5349 7.00047 31.8399 7.26676L34.1785 10.8771H32.6429ZM29.8535 6.29888C30.7458 6.29888 31.4267 6.08892 31.8963 5.66899C32.3659 5.24907 32.6007 4.64991 32.6007 3.87151C32.6007 3.09311 32.3659 2.49907 31.8963 2.08939C31.4267 1.66946 30.7458 1.4595 29.8535 1.4595H27.4586V6.29888H29.8535Z" fill="black"/>
<path d="M44.9167 8.18855H39.676L38.5912 10.8771H37.1402L41.606 0.122905H43.0007L47.4807 10.8771H46.0014L44.9167 8.18855ZM44.4236 6.9595L42.2963 1.68994L40.1691 6.9595H44.4236Z" fill="black"/>
<path d="M51.2997 0.122905H52.7085V10.8771H51.2997V0.122905Z" fill="black"/>
<path d="M66.4897 0.122905V10.8771H65.3345L59.4176 2.85754V10.8771H58.0089V0.122905H59.1641L65.081 8.14246V0.122905H66.4897Z" fill="black"/>
<path d="M71.7895 0.122905H73.1982V10.8771H71.7895V0.122905Z" fill="black"/>
<path d="M84.7818 8.18855H79.5411L78.4563 10.8771H77.0053L81.4711 0.122905H82.8658L87.3458 10.8771H85.8666L84.7818 8.18855ZM84.2887 6.9595L82.1614 1.68994L80.0342 6.9595H84.2887Z" fill="black"/>
<path d="M99.6457 0.122905V10.8771H98.4905L92.5736 2.85754V10.8771H91.1648V0.122905H92.32L98.2369 8.14246V0.122905H99.6457Z" fill="black"/>
<path d="M109.355 11C108.369 11 107.477 10.7644 106.678 10.2933C105.889 9.81192 105.269 9.15643 104.819 8.32682C104.368 7.48697 104.142 6.54469 104.142 5.5C104.142 4.45531 104.368 3.51816 104.819 2.68855C105.269 1.8487 105.894 1.1932 106.692 0.722067C107.491 0.240689 108.383 0 109.369 0C110.139 0 110.844 0.143389 111.482 0.430168C112.121 0.706704 112.666 1.12151 113.116 1.67458L112.201 2.64246C111.459 1.79236 110.534 1.36732 109.425 1.36732C108.693 1.36732 108.031 1.54655 107.439 1.90503C106.847 2.2635 106.382 2.76024 106.044 3.39525C105.716 4.02002 105.551 4.7216 105.551 5.5C105.551 6.2784 105.716 6.9851 106.044 7.62011C106.382 8.24488 106.847 8.7365 107.439 9.09497C108.031 9.45344 108.693 9.63268 109.425 9.63268C110.524 9.63268 111.449 9.20251 112.201 8.34218L113.116 9.31006C112.666 9.86313 112.116 10.2831 111.468 10.5698C110.829 10.8566 110.125 11 109.355 11Z" fill="black"/>
<path d="M125.955 0.122905V10.8771H124.546V6.0838H118.883V10.8771H117.474V0.122905H118.883V4.74721H124.546V0.122905H125.955Z" fill="black"/>
<path d="M137.538 8.18855H132.297L131.212 10.8771H129.761L134.227 0.122905H135.622L140.102 10.8771H138.623L137.538 8.18855ZM137.045 6.9595L134.917 1.68994L132.79 6.9595H137.045Z" fill="black"/>
<path d="M150.514 10.8771L148.387 7.57402C148.124 7.59451 147.917 7.60475 147.767 7.60475H145.33V10.8771H143.921V0.122905H147.767C149.044 0.122905 150.049 0.455773 150.782 1.12151C151.514 1.78724 151.881 2.70391 151.881 3.87151C151.881 4.70112 151.693 5.40782 151.317 5.99162C150.941 6.57542 150.406 7.00047 149.711 7.26676L152.05 10.8771H150.514ZM147.725 6.29888C148.617 6.29888 149.298 6.08892 149.767 5.66899C150.237 5.24907 150.472 4.64991 150.472 3.87151C150.472 3.09311 150.237 2.49907 149.767 2.08939C149.298 1.66946 148.617 1.4595 147.725 1.4595H145.33V6.29888H147.725Z" fill="black"/>
<path d="M165.648 10.8771L165.633 3.0419L162.069 9.57123H161.421L157.857 3.08799V10.8771H156.505V0.122905H157.66L161.773 7.68156L165.831 0.122905H166.986L167 10.8771H165.648Z" fill="black"/>
</svg>
