<svg width="164" height="21" viewBox="0 0 164 21" fill="none" xmlns="http://www.w3.org/2000/svg">
<path fill-rule="evenodd" clip-rule="evenodd" d="M15.4338 0L9.44282 16.9571L3.45187 0H0L7.2003 19.9896C7.53831 20.8249 8.06207 21 8.44154 21H10.3851C10.7917 21 11.3465 20.8249 11.6901 19.9785L18.8848 0H15.4338Z" fill="#274B55"/>
<path fill-rule="evenodd" clip-rule="evenodd" d="M30.3807 12.5543H24.2859L27.3329 4.03995L30.3807 12.5543ZM28.1359 0H26.4712C26.089 0 25.5612 0.175099 25.2144 1.02079L17.8909 21H21.2863L23.3075 15.329H31.3583L33.3803 21H36.7757L29.4482 1.00962C29.1054 0.175099 28.5454 0 28.1359 0Z" fill="#274B55"/>
<path fill-rule="evenodd" clip-rule="evenodd" d="M44.054 16.1269V0H40.7517V16.1239C40.7517 19.36 42.5162 21 45.9952 21H54.6669V18.088H45.9952C44.6712 18.088 44.054 17.4644 44.054 16.1269Z" fill="#274B55"/>
<path fill-rule="evenodd" clip-rule="evenodd" d="M57.6487 4.64961V16.3549C57.6881 19.3942 59.4072 21 62.6203 21H71.5638V18.2259H62.6203C61.3731 18.2259 60.8161 17.6894 60.8161 16.4882V12.1352H69.7914V9.22322H60.8161V4.59522C60.8161 3.33595 61.3731 2.77412 62.6203 2.77412H71.5638V0H62.6203C59.4072 0 57.6881 1.60576 57.6487 4.64961Z" fill="#274B55"/>
<path fill-rule="evenodd" clip-rule="evenodd" d="M88.289 16.0957L80.029 0.884438C79.8465 0.480592 79.4321 0 78.4955 0H76.3042C76.0746 0 75.5393 0.0961183 75.5393 0.988752V21H78.6919V4.82231L86.8972 19.9308C87.2376 20.6304 87.8646 21 88.7126 21H90.6767C90.8562 21 91.4423 20.9329 91.4423 20.0656V0H88.289V16.0957Z" fill="#274B55"/>
<path fill-rule="evenodd" clip-rule="evenodd" d="M95.4182 2.77477H102.493V21H105.773V2.77477H112.315V0H95.4182V2.77477Z" fill="#274B55"/>
<path fill-rule="evenodd" clip-rule="evenodd" d="M116.291 21H119.273V0H116.291V21Z" fill="#274B55"/>
<path fill-rule="evenodd" clip-rule="evenodd" d="M145.319 0H142.764C141.799 0 141.371 0.477847 141.168 0.914077L135.687 17.4121L130.164 0.879892C129.974 0.477847 129.545 0 128.581 0H126.026C125.789 0 125.236 0.0958666 125.236 0.983191V21H128.489V5.50973L133.463 19.9484C133.817 20.6463 134.506 21 135.511 21H135.834C136.837 21 137.526 20.6463 137.9 19.9083L142.855 5.51122V21H146.109V0.983191C146.109 0.0958666 145.557 0 145.319 0Z" fill="#274B55"/>
<path fill-rule="evenodd" clip-rule="evenodd" d="M155.056 2.77477H164V0H155.056C151.844 0 150.124 1.60644 150.085 4.65019V16.355C150.124 19.3943 151.844 21 155.056 21H164V18.2252H155.056C153.809 18.2252 153.252 17.6895 153.252 16.4877V12.1355H162.228V9.22289H153.252V4.59505C153.252 3.33657 153.809 2.77477 155.056 2.77477Z" fill="#274B55"/>
</svg>
