<svg width="104" height="16" viewBox="0 0 104 16" fill="none" xmlns="http://www.w3.org/2000/svg">
<path d="M25.9793 11.8733C25.9483 11.6434 25.8656 11.4503 25.7932 11.2756C25.4727 10.586 25.0384 10.117 24.5938 9.67568C23.6943 8.81133 22.6707 8.16767 21.7505 7.45964C21.7401 7.45044 21.7298 7.44125 21.7195 7.43205C21.6988 7.07344 21.6678 6.71483 21.5644 6.34702C21.523 6.1999 21.4713 6.06197 21.3679 5.91485C21.2749 5.76772 21.0267 5.63899 20.8096 5.65738C20.5925 5.67577 20.427 5.71255 20.2306 5.85968C20.0341 6.016 19.9824 6.28266 20.0135 6.45736C20.0755 6.82517 20.2409 7.08263 20.396 7.34929C20.5511 7.61595 20.7269 7.85503 20.8923 8.0941C21.0371 8.2964 21.1818 8.4895 21.3266 8.69179C21.0681 9.91475 20.427 11.1101 19.817 12.2595C19.7033 12.471 19.5792 12.6733 19.4241 12.8572L19.238 13.0963C19.1966 13.1423 19.1553 13.179 19.1139 13.2342C17.4389 15.1744 16.3843 13.3997 17.8008 9.09638C19.0622 5.28958 21.5851 0.434522 21.5851 0.434522C19.0622 -0.816022 17.6354 1.73104 17.1391 2.87124C16.7772 3.57927 16.3843 4.33328 15.9811 5.09648C13.7995 4.98613 11.5868 5.13326 9.50859 5.83209C9.4052 5.86887 9.29146 5.90565 9.18807 5.94243C8.47465 5.04131 7.35799 4.38845 6.09658 4.24133C5.40383 4.14937 4.66973 4.21374 3.98733 4.42523C3.30493 4.63672 2.68456 4.98613 2.14691 5.40911C1.07161 6.30104 0.347848 7.47803 0.0997017 8.75616C-0.148445 10.0251 0.0583439 11.3768 0.813123 12.517C1.18534 13.0779 1.69198 13.5744 2.27098 13.9514C2.84999 14.3284 3.52206 14.5767 4.18378 14.733C4.85584 14.8801 5.53825 14.9445 6.21031 14.9169C6.90305 14.9077 7.57512 14.7238 8.1748 14.4664C9.38452 13.933 10.3771 13.1331 11.2766 12.2963C12.1762 11.4411 12.962 10.5124 13.6961 9.55614C14.6783 8.25042 15.5572 6.88953 16.3636 5.50106C16.6118 5.51945 16.8496 5.54704 17.0977 5.57463C16.6014 6.87115 16.0121 8.4803 15.7846 9.38143C15.3504 11.0641 14.2958 14.9721 17.2011 14.9721C18.5866 14.9721 19.4655 14.1445 19.8274 13.4917C19.8274 13.4917 19.8377 13.4733 19.848 13.4549C19.8584 13.4273 19.879 13.3997 19.8894 13.3721C19.9618 13.2342 20.0858 12.9951 20.1789 12.8112C20.4374 12.3055 20.6338 11.7814 20.8406 11.2664C21.0577 10.7515 21.2645 10.2274 21.4403 9.69407C21.5023 9.49177 21.5644 9.28948 21.6161 9.08718C22.071 9.69406 22.5363 10.2918 22.9499 10.8527C23.26 11.2756 23.5599 11.6986 23.7046 12.0296C23.7357 12.1124 23.7563 12.1768 23.777 12.2227C23.777 12.2319 23.7874 12.2411 23.7874 12.2503C23.7874 12.2503 23.7874 12.2687 23.7977 12.2963L23.8184 12.4526C23.8494 12.6641 23.8701 12.8664 23.8908 13.0687C23.9321 13.4641 23.9011 13.9147 23.5599 14.2917C23.2394 14.6595 22.619 14.9169 22.0503 14.825C21.4713 14.7146 21.0888 14.2457 20.913 13.8043C20.8199 13.5836 20.7786 13.3537 20.7889 13.1331C20.7993 12.9124 20.8923 12.6825 21.0784 12.5078C21.2645 12.3331 21.5437 12.2319 21.8125 12.2411C22.0917 12.2503 22.2985 12.4434 22.3398 12.6365C22.3605 12.7377 22.3709 12.8388 22.3709 12.9308C22.3605 13.0135 22.3398 13.0411 22.3192 13.0503C22.2985 13.0779 22.0607 13.1698 21.8642 13.1974H21.8125C21.6057 13.225 21.4506 13.3905 21.4506 13.5836C21.4506 13.7951 21.6471 13.979 21.8952 13.9698C22.1227 13.9698 22.2881 13.9422 22.4949 13.8687C22.6914 13.7951 22.9085 13.6848 23.0636 13.4641C23.2084 13.2434 23.2187 12.9767 23.1567 12.7928C23.105 12.6273 23.0016 12.4618 22.8568 12.3239C22.5673 12.048 22.1641 11.9561 21.8229 11.9653C21.4713 11.9745 21.1508 12.0756 20.8613 12.2595C20.5821 12.4342 20.3547 12.7193 20.2719 13.0411C20.1892 13.3629 20.2616 13.694 20.4064 13.979C20.7269 14.5399 21.3473 14.8893 21.978 15.0273C22.6293 15.1468 23.3014 15.1192 24.0045 14.8985C24.356 14.779 24.6972 14.6043 24.9971 14.3468C25.2866 14.0986 25.5347 13.7951 25.7002 13.4641C25.8656 13.1331 25.9586 12.7836 25.9897 12.4526L26 12.1952C26 12.1584 26 12.1032 26 12.0388C26 11.9837 25.9897 11.9285 25.9793 11.8733ZM9.51893 8.02054C9.57063 8.56306 9.42588 9.07799 9.14671 9.56533C8.87789 10.0435 8.48499 10.4665 8.01971 10.7423C7.79225 10.8802 7.53376 10.963 7.30629 10.9814C7.06848 10.9906 6.8617 10.9262 6.65491 10.7883C6.21031 10.5124 5.98284 10.0711 6.0242 9.58372C6.05522 9.09638 6.31371 8.59984 6.67559 8.16766C7.26493 7.45964 8.10243 6.90793 9.0123 6.49414C9.3018 6.9631 9.47757 7.48722 9.51893 8.02054ZM13.3445 9.34465C12.6311 10.3009 11.8556 11.2205 10.9871 12.0664C10.1186 12.9032 9.14671 13.6848 7.99903 14.1445C7.43037 14.3744 6.81 14.5031 6.19997 14.4848C5.56927 14.4572 4.9489 14.356 4.38023 14.1537C3.23255 13.7491 2.38472 12.9308 1.98148 11.9929C1.175 10.0895 1.60926 7.83664 3.01542 6.18151C3.3773 5.77692 3.81156 5.41831 4.32853 5.17923C4.84551 4.93096 5.43485 4.81143 6.0242 4.82982C6.62389 4.84821 7.23392 4.98613 7.75089 5.28038C8.15413 5.49187 8.49533 5.78612 8.76415 6.12634C8.40227 6.27346 8.05073 6.44817 7.70953 6.64127C7.14086 6.9631 6.61355 7.34929 6.16895 7.81825C5.7347 8.2872 5.36248 8.85731 5.2901 9.53775C5.25908 9.86877 5.31078 10.2274 5.46587 10.5492C5.62096 10.871 5.88979 11.1469 6.19997 11.3492C6.49982 11.5607 6.95475 11.6986 7.35799 11.6618C7.77157 11.6342 8.14379 11.4779 8.44363 11.294C9.05366 10.9078 9.4569 10.3745 9.73606 9.8136C10.0152 9.2527 10.1393 8.59984 10.0462 7.98376C9.96353 7.40446 9.76708 6.83436 9.43622 6.32863C9.51893 6.30104 9.59131 6.26426 9.67402 6.23668C11.5972 5.54704 13.7064 5.35394 15.7846 5.46428C15.0299 6.81597 14.213 8.18605 13.3445 9.34465ZM16.5601 5.14245C16.8703 4.59994 17.1598 4.05742 17.4389 3.50571C17.6561 3.57927 17.7905 3.75398 17.7078 3.95627C17.594 4.25052 17.4183 4.69189 17.2218 5.19762C17.0047 5.17923 16.7772 5.16084 16.5601 5.14245ZM21.0991 6.91712C20.9027 6.73322 20.7165 6.53092 20.6442 6.35622C20.6132 6.26426 20.6028 6.23668 20.6235 6.1907C20.6442 6.14473 20.7786 6.07117 20.8613 6.04358C20.944 6.02519 21.0164 6.03438 21.0991 6.10795C21.1818 6.18151 21.2335 6.30104 21.2852 6.42058C21.3576 6.68724 21.4093 6.94471 21.43 7.20217C21.3162 7.11022 21.2025 7.01827 21.0991 6.91712Z" fill="#981E37"/>
<path d="M42.2437 10.5275C42.1812 10.5096 42.0666 10.5455 42.0249 10.6351C41.7644 11.1816 41.3789 11.7102 41.0142 12.212C40.6495 12.7137 40.2222 13.1886 39.7533 13.5828C39.5241 13.78 39.2636 13.9592 39.0344 14.0756C38.9197 14.1294 38.8051 14.1742 38.7218 14.1832C38.6697 14.1832 38.4821 14.1921 38.3883 14.1652C38.2633 14.1563 38.2007 14.1115 38.1174 14.0756C38.0549 14.0219 37.9819 13.9592 37.9194 13.8696C37.8465 13.7441 37.7944 13.5739 37.7631 13.3947C37.909 12.9288 38.2424 12.3374 38.6488 11.307C39.0969 10.3125 39.4095 9.65842 39.8575 8.64596L40.118 8.08149C40.2222 7.86645 40.0347 7.62453 39.7638 7.62453C39.4512 7.59765 39.1386 7.58869 38.826 7.60661L38.5238 7.62453C38.0028 7.70517 37.909 7.88437 37.7214 8.28756L37.6797 8.37716L37.6693 8.3682C37.3359 7.89333 36.7107 7.62453 36.0646 7.63349C36.0542 7.63349 36.0438 7.63349 36.0334 7.63349C34.2516 7.66933 33.0116 8.96851 33.0116 8.96851C32.3655 9.66738 32.0842 10.1243 31.855 10.6351C31.4694 11.1995 30.8963 11.8984 30.6358 12.2747C30.2711 12.7765 29.8439 13.2513 29.375 13.6456C29.1458 13.8427 28.8853 14.0219 28.656 14.1384C28.6352 14.1473 28.6039 14.1563 28.5831 14.1652C27.8224 14.443 27.9891 13.8964 28.01 13.8248L29.3958 9.8645L30.1461 8.08149C30.2503 7.86645 30.0627 7.62453 29.7918 7.62453C29.4792 7.59765 29.1666 7.58869 28.854 7.60661L28.5518 7.62453C28.0308 7.70517 27.937 7.88437 27.7495 8.28756L27.5515 8.69076C27.5515 8.69076 27.5515 8.69972 27.5619 8.69972C26.9055 10.1871 26.4574 11.5848 26.374 11.8267C24.8423 15.778 28.5101 15.0433 28.5101 15.0433C28.7706 14.9985 28.979 14.9089 29.1562 14.8014C29.5105 14.5953 29.7501 14.3355 29.9794 14.0756C30.4066 13.556 30.7296 13.0005 31.063 12.4629C31.1672 12.2926 31.3131 12.0597 31.4798 11.8088C31.3652 12.3195 31.3444 12.8571 31.4277 13.3857V13.3947C31.5007 13.6635 31.6153 13.9412 31.782 14.1742C31.8654 14.2817 31.9592 14.3892 32.0842 14.4878C32.7823 15.0075 33.3033 15.0702 33.6889 15.0702C34.3558 15.0702 35.1268 15.115 36.0125 14.5595C36.2626 14.3982 36.4189 14.1832 36.4189 14.1832C36.5335 14.3803 36.669 14.5236 36.8253 14.6312C37.5547 15.2494 38.8468 14.9985 38.8468 14.9985C39.1073 14.9537 39.3157 14.8641 39.4928 14.7566C39.597 14.6939 39.6908 14.6312 39.7742 14.5595C39.8054 14.5416 39.8263 14.5147 39.8575 14.4878C39.8784 14.4699 39.8888 14.4609 39.9096 14.443C40.0764 14.2996 40.2222 14.1384 40.3577 13.986C40.7849 13.4664 41.1079 12.9109 41.4414 12.3733C41.7748 11.8357 42.0145 11.2622 42.3271 10.7157C42.3271 10.7157 42.3271 10.7067 42.3375 10.7067C42.3583 10.653 42.3167 10.5544 42.2437 10.5275ZM36.1063 11.8805C35.0018 14.0667 34.1369 14.4251 33.6785 14.5057C33.5534 14.5326 33.4388 14.5416 33.2929 14.4699C33.1783 14.4161 33.0949 14.3355 33.0324 14.1652C32.8553 13.6814 33.0116 12.5614 34.0119 10.653C34.5433 9.64946 35.0122 9.07603 35.4186 8.76244C35.8354 8.43092 36.5023 8.4578 36.8774 8.83411C36.9087 8.86995 37.0024 8.98643 37.0129 9.00435C37.2317 9.44339 37.0962 9.89138 36.1063 11.8805Z" fill="#981E37"/>
<path d="M30.8286 4.1882C31.4444 4.1882 31.9429 3.88317 31.9429 3.50638C31.9429 3.12959 31.4444 2.82456 30.8286 2.82456C30.2128 2.82456 29.7143 3.12959 29.7143 3.50638C29.7143 3.88317 30.2226 4.1882 30.8286 4.1882Z" fill="#981E37"/>
<path d="M103.897 10.462C103.835 10.4438 103.721 10.4802 103.679 10.5713C103.421 11.1268 103.038 11.664 102.676 12.174C102.314 12.6839 101.89 13.1666 101.425 13.5672C101.198 13.7676 100.939 13.9497 100.712 14.0681C100.691 14.0772 100.66 14.0863 100.639 14.0954C99.8843 14.3777 100.05 13.8222 100.07 13.7493L101.601 9.28734C101.828 8.77739 101.684 8.24013 101.311 7.87588C101.291 7.84856 101.26 7.82125 101.229 7.79393C101.073 7.66644 100.877 7.55717 100.681 7.51164C100.515 7.457 100.35 7.42968 100.163 7.42968C100.081 7.42968 99.9773 7.42968 99.8843 7.43879C99.6257 7.48432 99.4189 7.57538 99.2431 7.68465C98.8915 7.89409 98.4986 8.2037 98.2814 8.45868C97.8574 8.98683 97.5679 9.49678 97.237 10.0431C97.1853 10.1251 97.1129 10.2617 97.0095 10.4256L96.8647 10.6624L97.3404 9.27823C97.5679 8.76829 97.4231 8.23102 97.0508 7.86678C97.0302 7.83946 96.9991 7.81214 96.9681 7.78482C96.813 7.65734 96.6165 7.54806 96.42 7.50253C96.2546 7.44789 96.0891 7.42058 95.903 7.42058C95.8203 7.42058 95.7169 7.42058 95.6238 7.42968C95.3653 7.47521 95.1584 7.56627 94.9826 7.67555C94.631 7.88499 94.2381 8.1946 94.0209 8.44957C93.5969 8.97773 93.3074 9.48767 92.9765 10.034L92.325 11.0812L92.9455 9.27823C93.173 8.76829 93.0282 8.23102 92.6559 7.86678C92.6352 7.83946 92.6042 7.81214 92.5732 7.78482C92.4181 7.65734 92.2216 7.54806 92.0251 7.50253C91.8597 7.44789 91.6942 7.42058 91.5081 7.42058C91.4253 7.42058 91.3219 7.42058 91.2289 7.42968C90.9703 7.47521 90.7635 7.56627 90.5877 7.67555C90.2361 7.88499 89.9362 8.13996 89.7191 8.40404C89.5123 8.65901 89.3365 8.90488 89.1813 9.15074L89.171 9.17806C88.9952 9.44214 88.8401 9.70622 88.6643 9.9794L87.8474 11.2816C87.5785 11.7187 87.4234 11.919 87.1338 11.919C86.3582 11.919 87.8577 10.1342 88.0749 9.20538C88.0749 9.20538 88.0749 9.20538 88.0749 9.19627C88.1679 8.9322 88.1989 8.65901 88.1266 8.3494C88.0645 8.15817 87.9611 7.94873 87.775 7.78482C87.5888 7.63002 87.351 7.51164 87.1235 7.47521C87.0097 7.44789 86.896 7.43879 86.7926 7.42968C86.6892 7.41147 86.5547 7.42058 86.4203 7.43879C86.1618 7.48432 85.955 7.57538 85.7792 7.68465C85.4276 7.89409 85.1897 8.15817 84.9622 8.42225C84.8071 8.61348 84.6623 8.81382 84.5382 9.01415C84.621 8.59527 84.4762 8.17639 84.166 7.87588C84.1453 7.84856 84.1143 7.82125 84.0832 7.79393C83.9281 7.66644 83.7316 7.55717 83.5352 7.51164C83.3697 7.457 83.2042 7.42968 83.0181 7.42968C82.9354 7.42968 82.832 7.42968 82.7389 7.43879C82.4804 7.48432 82.2736 7.57538 82.0978 7.68465C81.7462 7.89409 81.5083 8.15817 81.2808 8.42225C80.8568 8.95041 80.7534 9.10521 80.4225 9.65158L78.6749 12.4563C78.313 12.9662 78.1682 13.1666 77.7028 13.5672C77.4753 13.7676 77.2168 13.9497 76.9893 14.0681C76.8756 14.1227 76.7618 14.1682 76.6791 14.1773C76.6274 14.1773 76.4412 14.1864 76.3482 14.1591C76.2241 14.15 76.162 14.1045 76.0793 14.0681C76.0173 14.0134 75.9449 13.9588 75.8828 13.8586C75.7484 13.6219 75.7484 13.3396 75.8415 13.0846C76.0173 12.6293 76.2861 12.0101 76.6067 11.1723C77.0514 10.1615 77.3616 9.49678 77.8063 8.46778L78.0648 7.8941C78.1682 7.67555 77.982 7.42968 77.7132 7.42968C77.4029 7.40236 77.0927 7.39326 76.7825 7.41147L76.4826 7.42968C75.9655 7.51164 75.8725 7.69376 75.6863 8.10354L75.645 8.1946C75.3141 7.71197 74.7143 7.42968 74.0835 7.43879H74.0214C72.2531 7.47521 71.0226 8.7956 71.0226 8.7956C70.2056 9.69711 69.9781 10.1888 69.6886 10.9355C69.6575 11.0084 69.6369 11.0812 69.6162 11.1632C69.399 11.5183 69.1612 11.8644 68.9233 12.2013C68.5614 12.7112 68.1374 13.1939 67.6721 13.5945C67.4446 13.7949 67.186 13.977 66.9585 14.0954C66.9379 14.1045 66.9068 14.1136 66.8862 14.1227C66.1313 14.405 66.2967 13.8495 66.3174 13.7767L67.8479 9.30555C68.2512 8.41315 67.5066 7.44789 66.4105 7.44789V7.457C66.3174 7.44789 66.2037 7.44789 66.0796 7.46611C65.821 7.51164 65.6142 7.6027 65.4384 7.71197C65.0868 7.92142 64.849 8.18549 64.6215 8.44957C64.1975 8.97773 63.8769 9.54231 63.546 10.0887C63.4943 10.1706 63.4426 10.2617 63.3806 10.3436L63.9286 8.69544C63.9907 8.54063 64.0424 8.39493 64.0941 8.24013C64.4664 7.7484 64.8283 7.25667 65.2213 6.75583C65.8107 6.00912 66.3588 5.2351 66.8965 4.45197C67.4136 3.65974 67.9203 2.8584 68.1891 1.92957C68.2512 1.69281 68.2925 1.44694 68.2615 1.18287C68.2408 0.927894 68.1064 0.60918 67.8065 0.427057C67.517 0.244934 67.1757 0.235826 66.8965 0.22672C65.1489 0.22672 64.3009 0.718452 63.7218 2.2756L60.4541 11.9736C60.0301 12.4107 59.5647 12.9025 59.0787 13.3123C58.2825 13.9952 57.1966 14.3959 56.0798 14.323C56.0695 14.323 56.0695 14.323 56.0591 14.323C55.4594 14.2775 54.8596 14.1591 54.3425 13.9315C53.8151 13.722 53.3912 13.3942 53.0913 13.03C52.7914 12.6566 52.6259 12.2286 52.5432 11.7824C52.3881 10.8718 52.5432 9.86102 52.8017 8.85024C52.8017 8.84114 52.8121 8.82292 52.8121 8.81382C53.4222 8.87756 54.0633 8.85024 54.6838 8.71365C56.0591 8.41315 57.3001 7.67555 58.179 6.72851C58.6237 6.25499 59.0063 5.73594 59.2752 5.17136C59.5441 4.60678 59.7198 3.99667 59.7819 3.37745C59.8336 2.75823 59.8233 2.1208 59.5544 1.50158C59.42 1.19197 59.1821 0.882364 58.8512 0.700241C58.5306 0.518118 58.1687 0.427054 57.7964 0.39063C57.0519 0.317781 56.297 0.50901 55.6455 0.809513C55.2319 1.00985 54.8803 1.26482 54.57 1.54711C54.1978 1.0827 53.6807 0.691133 53.0809 0.445267C52.4501 0.190295 51.7573 0.0810225 51.0748 0.0992348C50.3819 0.117447 49.6684 0.290463 49.0996 0.672921C48.5206 1.03717 48.1069 1.58354 47.8587 2.14812C47.3624 3.29549 47.4761 4.57946 48.0242 5.65398C48.5619 6.72851 49.5133 7.62091 50.6715 8.18549C50.6508 8.27655 50.6198 8.36761 50.5991 8.45868C50.4543 9.05058 50.3716 9.6698 50.3819 10.3072C50.3923 10.9447 50.4853 11.6003 50.7542 12.2377C51.0127 12.8752 51.4471 13.4762 52.0262 13.9315C52.6052 14.3868 53.2981 14.6782 53.9806 14.833C54.6734 14.9878 55.3663 15.0424 56.0385 15.0151C56.7313 14.9969 57.5793 14.66 58.2618 14.3321C58.9546 13.9952 59.5854 13.3942 60.1645 12.7932L59.4096 15.0424H61.8294L62.8842 11.8462C63.1427 11.2998 63.5977 10.8081 63.939 10.2981C64.3009 9.78817 64.7249 9.30555 65.1902 8.90488C65.4177 8.70454 65.6763 8.52242 65.9038 8.40404C65.9348 8.38583 65.9658 8.37672 65.9968 8.36761C65.3454 9.87923 64.7456 11.5457 64.6628 11.7733C63.1427 15.7891 66.7827 15.0424 66.7827 15.0424C67.0413 14.9969 67.2481 14.9058 67.4239 14.7966C67.7755 14.5871 68.0133 14.323 68.2408 14.059C68.6648 13.5308 68.9854 12.9662 69.3163 12.4199C69.337 12.3834 69.3577 12.347 69.3783 12.3197C69.3577 12.6566 69.3577 12.9935 69.4094 13.3305V13.3396C69.4818 13.6128 69.5955 13.895 69.761 14.1318C69.8437 14.2411 69.9368 14.3504 70.0608 14.4505C70.7537 14.9787 71.2707 15.0424 71.6534 15.0424C72.3152 15.0424 73.1321 15.0151 74.0318 14.4778C74.1972 14.3777 74.3627 14.2502 74.3627 14.2502C74.8694 15.1244 76.0173 15.0333 76.5964 15.0333C76.6687 15.0333 76.7411 15.0242 76.8239 15.0151C77.0824 14.9696 77.2892 14.8785 77.465 14.7692C77.8166 14.5598 78.0544 14.2957 78.2819 14.0316C78.6542 13.5672 78.9438 13.0755 79.2333 12.5929L79.6573 11.919C79.6573 11.9099 79.6676 11.9099 79.6676 11.9008C79.6676 11.9008 79.6676 11.8917 79.678 11.8917L80.8258 10.0614C81.1878 9.55141 81.4049 9.30555 81.8703 8.89577C82.0667 8.71365 82.2839 8.56795 82.4907 8.44957C82.5424 8.43136 82.5941 8.42225 82.5631 8.50421C82.5631 8.50421 82.5631 8.50421 82.5631 8.51331C81.6634 10.7079 80.164 14.8057 80.0813 15.0333H82.5011L83.9281 10.8536C84.0419 10.6624 84.166 10.4802 84.3004 10.289C84.621 9.8337 84.9932 9.40572 85.4069 9.03236C85.6757 8.80471 86.441 8.30387 85.4586 10.6806C84.9415 11.9372 85.7481 12.5109 86.472 12.5473C87.9508 12.6111 88.1162 11.9281 88.4678 11.3362L88.5402 11.2178C88.5402 11.2178 88.5402 11.2178 88.5402 11.2087L89.1813 10.1797C89.5226 9.71532 89.9156 9.27823 90.3499 8.90488C90.5464 8.73186 90.7635 8.57706 90.9703 8.45868C91.022 8.44046 91.0737 8.43136 91.0531 8.51331C91.0531 8.52242 91.0531 8.52242 91.0531 8.52242C90.1534 10.717 88.654 14.8148 88.5712 15.0424H90.991L91.5598 13.376L93.0592 10.972C93.2557 10.6624 93.4212 10.4165 93.5039 10.2981C93.8658 9.78817 94.2898 9.30555 94.7551 8.90488C94.9516 8.72275 95.1688 8.57706 95.3756 8.45868C95.4273 8.44046 95.4687 8.43136 95.448 8.51331C95.448 8.52242 95.448 8.53153 95.448 8.53153C94.5483 10.7261 93.0489 14.8148 92.9765 15.0424H95.3963L96.1098 12.948L97.6299 10.5167C97.692 10.4256 97.7437 10.3528 97.7747 10.2981C98.1366 9.78817 98.5606 9.30555 99.026 8.90488C99.2535 8.70454 99.512 8.52242 99.7395 8.40404C99.7498 8.40404 99.7602 8.39493 99.7705 8.39493C99.1294 9.90656 98.5296 11.5457 98.4572 11.7733C96.9371 15.7891 100.577 15.0424 100.577 15.0424C100.836 14.9969 101.042 14.9058 101.218 14.7966C101.57 14.5871 101.808 14.323 102.035 14.059C102.459 13.5308 102.78 12.9662 103.111 12.4199C103.442 11.8735 103.679 11.2907 103.99 10.7352C103.99 10.7352 103.99 10.7261 104 10.7261C104 10.5804 103.969 10.4893 103.897 10.462ZM64.5698 6.66477L64.6215 6.50996H64.6111C64.911 5.46275 65.1902 4.41555 65.5315 3.39566L65.9244 2.11169C66.0796 1.70192 66.1519 1.35588 66.3174 1.01896C66.4208 0.827727 66.7104 0.754877 66.9379 0.727558C67.1654 0.709346 67.3308 0.736665 67.4653 0.81862C67.7445 0.955212 67.7548 1.41052 67.6617 1.81119C67.4549 2.64895 66.9896 3.46851 66.5035 4.25164C66.0175 5.03477 65.4591 5.79968 64.9007 6.55549C64.7352 6.78315 64.5698 7.00169 64.4043 7.22935C64.456 7.03812 64.5181 6.84689 64.5698 6.66477ZM54.9733 3.4594C55.1181 3.94203 55.1905 4.44287 55.2112 4.9346V4.9437C55.2112 5.04387 55.3042 5.12583 55.418 5.12583C55.5318 5.12583 55.6352 5.04387 55.6352 4.9437C55.6455 4.3518 55.5731 3.77812 55.418 3.21354C55.387 3.11337 55.356 3.0132 55.3249 2.91303C55.3353 2.89482 55.3456 2.87661 55.3559 2.8584C55.6662 2.41219 56.0281 2.02063 56.39 1.63817C56.752 1.26482 57.2173 0.918789 57.7654 0.882364C58.0343 0.873258 58.3135 0.927892 58.5203 1.07359C58.7271 1.20108 58.8409 1.40141 58.8926 1.63817C58.9856 2.11169 58.8202 2.63074 58.5927 3.10426C58.3652 3.58689 58.0756 4.04219 57.7757 4.4884C57.4759 4.9346 57.176 5.3808 56.8451 5.79968C56.1729 6.62834 55.4077 7.44789 54.3632 7.91231C53.9289 8.10354 53.4532 8.21281 52.9568 8.24013C53.205 7.42058 53.5359 6.59192 53.8669 5.77236C54.1874 4.98013 54.539 4.197 54.9733 3.4594ZM51.871 5.04387C51.4264 5.89985 51.0438 6.79225 50.7749 7.73018C49.7408 7.22935 48.9652 6.38248 48.5619 5.42633C48.1483 4.42465 48.0759 3.3046 48.4792 2.32113C48.686 1.83851 49.0169 1.39231 49.4823 1.10091C49.9373 0.791302 50.506 0.645602 51.0851 0.62739C51.6849 0.609178 52.2847 0.691133 52.8224 0.891468C53.3601 1.10091 53.8255 1.43784 54.1667 1.87493C54.1667 1.87493 54.1667 1.87493 54.1667 1.88404C54.1254 1.92957 54.0737 1.9751 54.0323 2.01153C53.143 2.94946 52.4501 3.97845 51.871 5.04387ZM74.0731 11.7187C72.977 13.9406 72.1187 14.3048 71.6637 14.3868C71.5396 14.4141 71.4259 14.4232 71.2811 14.3504C71.1673 14.2957 71.0846 14.2138 71.0226 14.0407C70.8468 13.549 71.0019 12.4107 71.9946 10.4711C72.522 9.45125 72.9873 8.86845 73.3906 8.54974C73.8043 8.21281 74.4661 8.24013 74.8384 8.62259C74.8694 8.65901 74.9625 8.77739 74.9728 8.7956C75.19 9.25091 75.0555 9.70622 74.0731 11.7187Z" fill="#981E37"/>
</svg>
